Longitute,Latitude,Name,Comment
-80.4190777,37.22912458,BA1013,1
-80.4190777,37.22912458,BA1014,1
-80.41915607,37.2289734,BA1015,1
-80.41915607,37.2289734,BA1016,1
-80.41937217,37.22893648,BA1043,1
-80.41970291,37.22888301,BA1044,1
-80.41948044,37.22869097,BA1050,1
-80.41937093,37.22877621,BA1051,1
-80.41922755,37.22903786,BA1152,1
-80.41922755,37.22903786,BA1153,1
-80.41903614,37.22906094,BA1154,1
-80.41903614,37.22906094,BA1155,1
-80.41877932,37.2287867,BB1008,1
-80.41877932,37.2287867,BB1009,1
-80.41908639,37.22855636,BB1036,1
-80.41907103,37.22845089,BB1036,1
-80.41897699,37.22856616,BB1036,1
-80.41897699,37.22856616,BB1037,1
-80.41916587,37.22871509,BB1054,1
-80.41916587,37.22871509,BB1055,1
-80.41941491,37.22863437,BB1090,1
-80.41935439,37.22858095,BB1090,1
-80.41929693,37.22862035,BB1090,1
-80.41928542,37.22858026,BB1090,1
-80.41910616,37.22887055,BB1156,1
-80.41901886,37.22882182,BB1158,1
-80.41904845,37.22910942,CA1006,2
-80.41890865,37.22882947,CA1052,2
-80.41890865,37.22882947,CA1053,2
-80.418905,37.22871515,CA1075,2
-80.418905,37.22871515,CA1076,2
-80.41913155,37.22848768,CA1102,2
-80.41913155,37.22848768,CA1103,2
-80.41918562,37.2290465,CA1124,2
-80.41903078,37.22897177,CA1126,2
-80.41903078,37.22897177,CA1127,2
-80.41927886,37.22900563,CA1132,2
-80.41927886,37.22900563,CA1133,2
-80.41955382,37.22886595,CA1165,2
-80.41955382,37.22886595,CA1166,2
-80.41933726,37.22875352,CA1191,2
-80.41933726,37.22875352,CA1192,2
-80.41920208,37.22906738,CA1328,2
-80.41947594,37.2288545,CA1330,2
-80.41948231,37.22872177,CA1332,2
-80.41934202,37.22857714,CA1334,2
-80.4192919,37.2285227,CA1336,2
-80.41882325,37.22887701,CA1340,2
-80.41942847,37.22889684,CA1342,3
-80.41930369,37.22884336,CA1342,3
-80.41898559,37.2285217,CA1344,3
-80.41887438,37.22860151,CA1344,3
-80.41903706,37.22912165,CA1342,3
-80.41892976,37.22893728,CA1342,3
-80.4188038,37.2288356,CA1344,3
-80.41959097,37.22896608,CA1342,3
-80.41942077,37.22864429,CA1342,3
