-80.43594	37.2099712
-80.41629	37.2286
-80.41831	37.22331
-80.42548	37.23005
-80.4088723	37.2040358
-80.42371	37.229
-80.42153	37.2262
-80.41893	37.22245
-80.4218136	37.2331757
-80.42474	37.22992
-80.42597	37.22075
-80.4118	37.2047
-80.42257	37.22156
-80.42521	37.22674
-80.4256	37.22908
-80.42111	37.22454
-80.42382	37.23174
-80.41938	37.22766
-80.41938	37.22766
-80.42124	37.23133
-80.42349	37.22411
-80.41756	37.22822
-80.42542	37.23237
-80.42059	37.22629
-80.42626	37.22831
-80.42568	37.22791
-80.42427	37.23016
-80.4167	37.23056
-80.42501	37.2239
-80.42284	37.22571
-80.423401	37.193281
-80.42244	37.23108
-80.4414654	37.2181758
-80.41873	37.21997
-80.41787	37.22612
-80.41787	37.22612
-80.42078	37.23106
-80.4347	37.2338014
-80.42178	37.23062
-80.4223	37.22069
-80.41533	37.22882
-80.42153	37.23181
-80.42312	37.22944
-80.42565	37.23086
-80.4222	37.22922
-80.431129	37.233579
-80.431129	37.233579
-79.94638	37.2573
-80.42368	37.2304
-80.4191667	37.2305556
-80.42436	37.22495
-80.42159	37.23148
-80.41983	37.23185
-80.41796	37.22962
-80.42183	37.22208
-80.2458	37.1348
-80.4193	37.21483
-80.41997	37.22978
-80.41997	37.22978
-80.41659	37.22736
-80.42877	37.22699
-80.41765	37.22684
-80.406	37.1989
-80.41796	37.22962
-80.42427	37.22297
-80.42427	37.22297
-80.42445	37.23107
-80.42435	37.22784
-80.41978	37.2309
