lat,long,Date
37.2297,-80.41997,13:39:26 2016-02-19
37.2296,-80.41796,19:11:02 2016-02-20
37.134,-80.2458,19:11:49 2016-02-20
37.228,-80.41629,19:12:25 2016-02-20
37.228,-80.41629,19:12:34 2016-02-20
37.228,-80.41629,19:14:29 2016-02-20
37.2310,-80.42445,08:38:18 2016-02-22
37.2310,-80.42445,08:38:18 2016-02-22
37.2310,-80.42445,08:38:46 2016-02-22
37.2310,-80.42445,08:41:27 2016-02-22
37.2310,-80.42445,08:41:43 2016-02-22
37.22,-80.42371,08:44:30 2016-02-22
37.22,-80.42371,08:44:44 2016-02-22
37.22,-80.42371,08:44:59 2016-02-22
37.2306,-80.42178,08:46:04 2016-02-22
37.223,-80.42501,08:47:33 2016-02-22
37.223,-80.42501,08:47:34 2016-02-22
37.2310,-80.42078,08:47:40 2016-02-22
37.2292,-80.4222,08:47:50 2016-02-22
37.2261,-80.41787,08:48:46 2016-02-22
37.2297,-80.41997,08:50:02 2016-02-22
37.2297,-80.41997,08:50:37 2016-02-22
37.2297,-80.41997,08:50:49 2016-02-22
37.2297,-80.41997,08:50:58 2016-02-22
37.2297,-80.41997,08:51:08 2016-02-22
37.2297,-80.41997,08:51:35 2016-02-22
37.2297,-80.41997,08:51:41 2016-02-22
37.2297,-80.41997,08:51:46 2016-02-22
37.2297,-80.41997,08:51:54 2016-02-22
37.2297,-80.41997,08:51:59 2016-02-22
37.2297,-80.41997,08:52:09 2016-02-22
37.2297,-80.41997,08:52:24 2016-02-22
37.2297,-80.41997,08:52:40 2016-02-22
37.2297,-80.41997,08:52:47 2016-02-22
37.2297,-80.41997,08:52:55 2016-02-22
37.2297,-80.41997,08:53:10 2016-02-22
37.2297,-80.41997,08:53:10 2016-02-22
37.2297,-80.41997,08:53:19 2016-02-22
37.2297,-80.41997,08:53:24 2016-02-22
37.2297,-80.41997,08:53:38 2016-02-22
37.2297,-80.41997,08:53:49 2016-02-22
37.2297,-80.41997,08:53:56 2016-02-22
37.2297,-80.41997,08:54:06 2016-02-22
37.2297,-80.41997,08:54:30 2016-02-22
37.2297,-80.41997,08:54:45 2016-02-22
37.2297,-80.41997,08:54:47 2016-02-22
37.2297,-80.41997,08:54:53 2016-02-22
37.2297,-80.41997,08:55:03 2016-02-22
37.2297,-80.41997,08:55:10 2016-02-22
37.2297,-80.41997,08:55:26 2016-02-22
37.2297,-80.41997,08:55:45 2016-02-22
37.2297,-80.41997,08:55:47 2016-02-22
37.2297,-80.41997,08:55:52 2016-02-22
37.2297,-80.41997,08:55:59 2016-02-22
37.2297,-80.41997,08:56:11 2016-02-22
37.2297,-80.41997,08:57:18 2016-02-22
37.2297,-80.41997,08:57:44 2016-02-22
37.2297,-80.41997,08:57:47 2016-02-22
37.2297,-80.41997,08:57:53 2016-02-22
37.2297,-80.41997,08:58:01 2016-02-22
37.2297,-80.41997,08:58:06 2016-02-22
37.2297,-80.41997,08:58:21 2016-02-22
37.2297,-80.41997,08:58:38 2016-02-22
37.2297,-80.41997,08:58:47 2016-02-22
37.2297,-80.41997,08:58:58 2016-02-22
37.2297,-80.41997,08:59:50 2016-02-22
37.2297,-80.41997,08:59:59 2016-02-22
37.2297,-80.41997,08:59:59 2016-02-22
37.2297,-80.41997,09:00:35 2016-02-22
37.2297,-80.41997,09:00:50 2016-02-22
37.2297,-80.41997,09:00:59 2016-02-22
37.2297,-80.41997,09:01:05 2016-02-22
37.2297,-80.41997,09:01:13 2016-02-22
37.2297,-80.41997,09:01:36 2016-02-22
37.2297,-80.41997,09:01:43 2016-02-22
37.2297,-80.41997,09:01:47 2016-02-22
37.2297,-80.41997,09:01:59 2016-02-22
37.2297,-80.41997,09:02:12 2016-02-22
37.2297,-80.41997,09:02:39 2016-02-22
37.2297,-80.41997,09:02:42 2016-02-22
37.2297,-80.41997,09:02:48 2016-02-22
37.2297,-80.41997,09:02:56 2016-02-22
37.2297,-80.41997,09:03:02 2016-02-22
37.2297,-80.41997,09:03:08 2016-02-22
37.2297,-80.41997,09:03:29 2016-02-22
37.2297,-80.41997,09:03:31 2016-02-22
37.2297,-80.41997,09:03:36 2016-02-22
37.2297,-80.41997,09:03:41 2016-02-22
37.2297,-80.41997,09:03:56 2016-02-22
37.2297,-80.41997,09:04:07 2016-02-22
37.2297,-80.41997,09:04:17 2016-02-22
37.2297,-80.41997,09:04:32 2016-02-22
37.2297,-80.41997,09:04:37 2016-02-22
37.2297,-80.41997,09:04:43 2016-02-22
37.2297,-80.41997,09:04:57 2016-02-22
37.2297,-80.41997,09:05:07 2016-02-22
37.2297,-80.41997,09:05:07 2016-02-22
37.2297,-80.41997,09:05:18 2016-02-22
37.2297,-80.41997,09:05:37 2016-02-22
37.2297,-80.41997,09:05:42 2016-02-22
37.2297,-80.41997,09:05:52 2016-02-22
37.2297,-80.41997,09:06:08 2016-02-22
37.2297,-80.41997,09:06:20 2016-02-22
37.2297,-80.41997,09:06:37 2016-02-22
37.2297,-80.41997,09:07:22 2016-02-22
37.2297,-80.41997,09:07:31 2016-02-22
37.2297,-80.41997,09:07:49 2016-02-22
37.2297,-80.41997,09:07:49 2016-02-22
37.2297,-80.41997,09:07:59 2016-02-22
37.2297,-80.41997,09:08:17 2016-02-22
37.2297,-80.41997,09:08:37 2016-02-22
37.2297,-80.41997,09:08:42 2016-02-22
37.2297,-80.41997,09:09:45 2016-02-22
37.2297,-80.41997,09:09:50 2016-02-22
37.2297,-80.41997,09:10:11 2016-02-22
37.2297,-80.41997,09:10:24 2016-02-22
37.2297,-80.41997,09:10:39 2016-02-22
37.2297,-80.41997,09:10:39 2016-02-22
37.2297,-80.41997,09:10:46 2016-02-22
37.2297,-80.41997,09:10:56 2016-02-22
37.2297,-80.41997,09:11:11 2016-02-22
37.2297,-80.41997,09:11:24 2016-02-22
37.2297,-80.41997,09:11:34 2016-02-22
37.2297,-80.41997,09:11:47 2016-02-22
37.2297,-80.41997,09:11:58 2016-02-22
37.2297,-80.41997,09:11:58 2016-02-22
37.2297,-80.41997,09:12:08 2016-02-22
37.2297,-80.41997,09:12:28 2016-02-22
37.2297,-80.41997,09:12:38 2016-02-22
37.2297,-80.41997,09:12:42 2016-02-22
37.2297,-80.41997,09:12:58 2016-02-22
37.2297,-80.41997,09:12:58 2016-02-22
37.2297,-80.41997,09:13:08 2016-02-22
37.2297,-80.41997,09:13:26 2016-02-22
37.2297,-80.41997,09:13:26 2016-02-22
37.2297,-80.41997,09:13:34 2016-02-22
37.2297,-80.41997,09:13:43 2016-02-22
37.2297,-80.41997,09:13:53 2016-02-22
37.2297,-80.41997,09:14:09 2016-02-22
37.2297,-80.41997,09:14:29 2016-02-22
37.2297,-80.41997,09:14:35 2016-02-22
37.2297,-80.41997,09:14:43 2016-02-22
37.2297,-80.41997,09:14:54 2016-02-22
37.2297,-80.41997,09:15:04 2016-02-22
37.2297,-80.41997,09:15:28 2016-02-22
37.2297,-80.41997,09:15:38 2016-02-22
37.2297,-80.41997,09:15:40 2016-02-22
37.2297,-80.41997,09:15:47 2016-02-22
37.2297,-80.41997,09:15:54 2016-02-22
37.2297,-80.41997,09:16:04 2016-02-22
37.2297,-80.41997,09:16:05 2016-02-22
37.2297,-80.41997,09:16:27 2016-02-22
37.2297,-80.41997,09:16:40 2016-02-22
37.2297,-80.41997,09:16:44 2016-02-22
37.2297,-80.41997,09:16:55 2016-02-22
37.2297,-80.41997,09:17:05 2016-02-22
37.2297,-80.41997,09:17:18 2016-02-22
37.2297,-80.41997,09:17:33 2016-02-22
37.2297,-80.41997,09:17:35 2016-02-22
37.2297,-80.41997,09:17:41 2016-02-22
37.2297,-80.41997,09:17:50 2016-02-22
37.2297,-80.41997,09:18:06 2016-02-22
37.2297,-80.41997,09:18:21 2016-02-22
37.2297,-80.41997,09:18:38 2016-02-22
37.2297,-80.41997,09:18:46 2016-02-22
37.2297,-80.41997,09:18:46 2016-02-22
37.2297,-80.41997,09:19:37 2016-02-22
37.2297,-80.41997,09:19:49 2016-02-22
37.2297,-80.41997,09:20:02 2016-02-22
37.2297,-80.41997,09:20:08 2016-02-22
37.2297,-80.41997,09:20:12 2016-02-22
37.2297,-80.41997,09:20:37 2016-02-22
37.2297,-80.41997,09:20:42 2016-02-22
37.2297,-80.41997,09:20:47 2016-02-22
37.2297,-80.41997,09:21:02 2016-02-22
37.2297,-80.41997,09:21:13 2016-02-22
37.2297,-80.41997,09:21:31 2016-02-22
37.2297,-80.41997,09:21:34 2016-02-22
37.2297,-80.41997,09:21:38 2016-02-22
37.2297,-80.41997,09:21:48 2016-02-22
37.2297,-80.41997,09:21:58 2016-02-22
37.2297,-80.41997,09:22:14 2016-02-22
37.2297,-80.41997,09:22:30 2016-02-22
37.2297,-80.41997,09:22:35 2016-02-22
37.2297,-80.41997,09:22:36 2016-02-22
37.2297,-80.41997,09:22:49 2016-02-22
37.2297,-80.41997,09:22:59 2016-02-22
37.2297,-80.41997,09:23:09 2016-02-22
37.2297,-80.41997,09:23:34 2016-02-22
37.2297,-80.41997,09:23:38 2016-02-22
37.2297,-80.41997,09:23:44 2016-02-22
37.2297,-80.41997,09:23:59 2016-02-22
37.2297,-80.41997,09:24:12 2016-02-22
37.2297,-80.41997,09:24:12 2016-02-22
37.2297,-80.41997,09:24:39 2016-02-22
37.2297,-80.41997,09:24:44 2016-02-22
37.2297,-80.41997,09:24:47 2016-02-22
37.2297,-80.41997,09:25:00 2016-02-22
37.2297,-80.41997,09:25:10 2016-02-22
37.2297,-80.41997,09:25:10 2016-02-22
37.2297,-80.41997,09:25:25 2016-02-22
37.2297,-80.41997,09:25:42 2016-02-22
37.2297,-80.41997,09:25:46 2016-02-22
37.2297,-80.41997,09:25:55 2016-02-22
37.2297,-80.41997,09:26:01 2016-02-22
37.2297,-80.41997,09:26:11 2016-02-22
37.2297,-80.41997,09:26:11 2016-02-22
37.2297,-80.41997,09:26:24 2016-02-22
37.2297,-80.41997,09:26:37 2016-02-22
37.2297,-80.41997,09:26:46 2016-02-22
37.2297,-80.41997,09:26:56 2016-02-22
37.2297,-80.41997,09:27:06 2016-02-22
37.2297,-80.41997,09:27:21 2016-02-22
37.2297,-80.41997,09:27:24 2016-02-22
37.2297,-80.41997,09:27:34 2016-02-22
37.2297,-80.41997,09:27:41 2016-02-22
37.2297,-80.41997,09:27:57 2016-02-22
37.2297,-80.41997,09:28:07 2016-02-22
37.2297,-80.41997,09:28:23 2016-02-22
37.2297,-80.41997,09:28:23 2016-02-22
37.2297,-80.41997,09:28:30 2016-02-22
37.2297,-80.41997,09:28:45 2016-02-22
37.2297,-80.41997,09:28:53 2016-02-22
37.2297,-80.41997,09:29:07 2016-02-22
37.2297,-80.41997,09:29:25 2016-02-22
37.2297,-80.41997,09:30:16 2016-02-22
37.2297,-80.41997,09:30:27 2016-02-22
37.2297,-80.41997,09:30:41 2016-02-22
37.2297,-80.41997,09:30:54 2016-02-22
37.2297,-80.41997,09:31:04 2016-02-22
37.2297,-80.41997,09:31:14 2016-02-22
37.2297,-80.41997,09:31:38 2016-02-22
37.2297,-80.41997,09:31:41 2016-02-22
37.2297,-80.41997,09:31:54 2016-02-22
37.2297,-80.41997,09:32:04 2016-02-22
37.2297,-80.41997,09:32:15 2016-02-22
37.2297,-80.41997,09:33:50 2016-02-22
37.2297,-80.41997,09:34:01 2016-02-22
37.2297,-80.41997,09:34:17 2016-02-22
37.2297,-80.41997,09:34:38 2016-02-22
37.2297,-80.41997,09:34:45 2016-02-22
37.2297,-80.41997,09:34:51 2016-02-22
37.2297,-80.41997,09:35:01 2016-02-22
37.2297,-80.41997,09:35:16 2016-02-22
37.2297,-80.41997,09:35:37 2016-02-22
37.2297,-80.41997,09:35:42 2016-02-22
37.2297,-80.41997,09:35:47 2016-02-22
37.2297,-80.41997,09:36:02 2016-02-22
37.2297,-80.41997,09:36:13 2016-02-22
37.2297,-80.41997,09:36:31 2016-02-22
37.2297,-80.41997,09:36:31 2016-02-22
37.2297,-80.41997,09:36:39 2016-02-22
37.2297,-80.41997,09:36:47 2016-02-22
37.2297,-80.41997,09:36:57 2016-02-22
37.2297,-80.41997,09:37:15 2016-02-22
37.2297,-80.41997,09:37:36 2016-02-22
37.2297,-80.41997,09:37:36 2016-02-22
37.2297,-80.41997,09:37:40 2016-02-22
37.2297,-80.41997,09:37:49 2016-02-22
37.2297,-80.41997,09:37:58 2016-02-22
37.2297,-80.41997,09:38:39 2016-02-22
37.2297,-80.41997,09:38:59 2016-02-22
37.2297,-80.41997,09:39:26 2016-02-22
37.2297,-80.41997,09:39:46 2016-02-22
37.2297,-80.41997,09:40:04 2016-02-22
37.2297,-80.41997,09:40:41 2016-02-22
37.2297,-80.41997,09:41:38 2016-02-22
37.2297,-80.41997,09:41:46 2016-02-22
37.2297,-80.41997,09:42:01 2016-02-22
37.2297,-80.41997,09:42:11 2016-02-22
37.2297,-80.41997,09:42:25 2016-02-22
37.2297,-80.41997,09:42:38 2016-02-22
37.2297,-80.41997,09:42:46 2016-02-22
37.2297,-80.41997,09:42:56 2016-02-22
37.2297,-80.41997,09:43:12 2016-02-22
37.2297,-80.41997,09:43:28 2016-02-22
37.2297,-80.41997,09:43:41 2016-02-22
37.2297,-80.41997,09:43:47 2016-02-22
37.2297,-80.41997,09:43:58 2016-02-22
37.2297,-80.41997,09:44:14 2016-02-22
37.2297,-80.41997,09:44:30 2016-02-22
37.2297,-80.41997,09:44:38 2016-02-22
37.2297,-80.41997,09:44:47 2016-02-22
37.2297,-80.41997,09:44:58 2016-02-22
37.2297,-80.41997,09:45:08 2016-02-22
37.2297,-80.41997,09:45:32 2016-02-22
37.2297,-80.41997,09:45:38 2016-02-22
37.2297,-80.41997,09:45:43 2016-02-22
37.2297,-80.41997,09:45:58 2016-02-22
37.2297,-80.41997,09:46:11 2016-02-22
37.2297,-80.41997,09:46:31 2016-02-22
37.2297,-80.41997,09:46:54 2016-02-22
37.2297,-80.41997,09:47:37 2016-02-22
37.2297,-80.41997,09:48:05 2016-02-22
37.2297,-80.41997,09:48:22 2016-02-22
37.2297,-80.41997,09:48:32 2016-02-22
37.2297,-80.41997,09:48:49 2016-02-22
37.2297,-80.41997,09:48:52 2016-02-22
37.2297,-80.41997,09:48:55 2016-02-22
37.2297,-80.41997,09:49:00 2016-02-22
37.2297,-80.41997,09:49:08 2016-02-22
37.2297,-80.41997,09:49:23 2016-02-22
37.2297,-80.41997,09:49:43 2016-02-22
37.2297,-80.41997,09:49:50 2016-02-22
37.2297,-80.41997,09:49:51 2016-02-22
37.2297,-80.41997,09:49:56 2016-02-22
37.2297,-80.41997,09:50:07 2016-02-22
37.2297,-80.41997,09:50:27 2016-02-22
37.2297,-80.41997,09:50:43 2016-02-22
37.2297,-80.41997,09:50:48 2016-02-22
37.2297,-80.41997,09:50:51 2016-02-22
37.2297,-80.41997,09:50:56 2016-02-22
37.2297,-80.41997,09:51:03 2016-02-22
37.2297,-80.41997,09:51:27 2016-02-22
37.2297,-80.41997,09:51:38 2016-02-22
37.2297,-80.41997,09:51:44 2016-02-22
37.2297,-80.41997,09:51:46 2016-02-22
37.2297,-80.41997,09:51:49 2016-02-22
37.2297,-80.41997,09:51:58 2016-02-22
37.2297,-80.41997,09:52:45 2016-02-22
37.2297,-80.41997,09:53:05 2016-02-22
37.2297,-80.41997,09:53:42 2016-02-22
37.2297,-80.41997,09:53:48 2016-02-22
37.2297,-80.41997,09:53:49 2016-02-22
37.2297,-80.41997,09:53:55 2016-02-22
37.2297,-80.41997,09:54:12 2016-02-22
37.2297,-80.41997,09:54:36 2016-02-22
37.2297,-80.41997,09:54:50 2016-02-22
37.2297,-80.41997,09:54:59 2016-02-22
37.2297,-80.41997,09:55:01 2016-02-22
37.2297,-80.41997,09:55:07 2016-02-22
37.2297,-80.41997,09:55:14 2016-02-22
37.2297,-80.41997,09:55:36 2016-02-22
37.2297,-80.41997,09:55:48 2016-02-22
37.2297,-80.41997,09:55:54 2016-02-22
37.2297,-80.41997,09:55:58 2016-02-22
37.2297,-80.41997,09:56:07 2016-02-22
37.2297,-80.41997,09:57:03 2016-02-22
37.2297,-80.41997,09:57:05 2016-02-22
37.2297,-80.41997,09:57:50 2016-02-22
37.2297,-80.41997,09:57:58 2016-02-22
37.2297,-80.41997,09:58:07 2016-02-22
37.2297,-80.41997,09:59:11 2016-02-22
37.2297,-80.41997,09:59:52 2016-02-22
37.2297,-80.41997,10:00:11 2016-02-22
37.2297,-80.41997,10:00:39 2016-02-22
37.2297,-80.41997,10:01:37 2016-02-22
37.2297,-80.41997,10:02:07 2016-02-22
37.2297,-80.41997,10:02:58 2016-02-22
37.2297,-80.41997,10:03:44 2016-02-22
37.2297,-80.41997,10:03:58 2016-02-22
37.2297,-80.41997,10:04:06 2016-02-22
37.2297,-80.41997,10:04:14 2016-02-22
37.2297,-80.41997,10:04:20 2016-02-22
37.2297,-80.41997,10:04:31 2016-02-22
37.2297,-80.41997,10:04:47 2016-02-22
37.2297,-80.41997,10:05:03 2016-02-22
37.2297,-80.41997,10:05:05 2016-02-22
37.2297,-80.41997,10:05:20 2016-02-22
37.2297,-80.41997,10:05:21 2016-02-22
37.2297,-80.41997,10:05:31 2016-02-22
37.2297,-80.41997,10:05:49 2016-02-22
37.2297,-80.41997,10:06:26 2016-02-22
37.2297,-80.41997,10:07:30 2016-02-22
37.2297,-80.41997,10:07:37 2016-02-22
37.2297,-80.41997,10:07:42 2016-02-22
37.2297,-80.41997,10:07:46 2016-02-22
37.2297,-80.41997,10:07:57 2016-02-22
37.2297,-80.41997,10:08:18 2016-02-22
37.2297,-80.41997,10:08:24 2016-02-22
37.2297,-80.41997,10:08:31 2016-02-22
37.2297,-80.41997,10:08:37 2016-02-22
37.2297,-80.41997,10:08:38 2016-02-22
37.2297,-80.41997,10:08:47 2016-02-22
37.2297,-80.41997,10:08:57 2016-02-22
37.2297,-80.41997,10:09:11 2016-02-22
37.2297,-80.41997,10:09:20 2016-02-22
37.2297,-80.41997,10:09:27 2016-02-22
37.2297,-80.41997,10:09:27 2016-02-22
37.2297,-80.41997,10:09:39 2016-02-22
37.2297,-80.41997,10:09:44 2016-02-22
37.2297,-80.41997,10:10:02 2016-02-22
37.2297,-80.41997,10:10:13 2016-02-22
37.2297,-80.41997,10:10:22 2016-02-22
37.2297,-80.41997,10:10:31 2016-02-22
37.2297,-80.41997,10:10:32 2016-02-22
37.2297,-80.41997,10:10:44 2016-02-22
37.2297,-80.41997,10:11:01 2016-02-22
37.2297,-80.41997,10:11:08 2016-02-22
37.2297,-80.41997,10:11:14 2016-02-22
37.2297,-80.41997,10:11:22 2016-02-22
37.2297,-80.41997,10:11:26 2016-02-22
37.2297,-80.41997,10:11:38 2016-02-22
37.2297,-80.41997,10:11:55 2016-02-22
37.2297,-80.41997,10:12:02 2016-02-22
37.2297,-80.41997,10:12:09 2016-02-22
37.2297,-80.41997,10:12:13 2016-02-22
37.2297,-80.41997,10:12:17 2016-02-22
37.2297,-80.41997,10:12:17 2016-02-22
37.2297,-80.41997,10:12:41 2016-02-22
37.2297,-80.41997,10:12:46 2016-02-22
37.2297,-80.41997,10:13:12 2016-02-22
37.2297,-80.41997,10:14:13 2016-02-22
37.2297,-80.41997,10:14:18 2016-02-22
37.2297,-80.41997,10:14:35 2016-02-22
37.2297,-80.41997,10:14:47 2016-02-22
37.2297,-80.41997,10:14:51 2016-02-22
37.2297,-80.41997,10:14:58 2016-02-22
37.2297,-80.41997,10:15:08 2016-02-22
37.2297,-80.41997,10:15:16 2016-02-22
37.2297,-80.41997,10:15:27 2016-02-22
37.2297,-80.41997,10:15:49 2016-02-22
37.2297,-80.41997,10:15:54 2016-02-22
37.2297,-80.41997,10:15:59 2016-02-22
37.2297,-80.41997,10:16:09 2016-02-22
37.2297,-80.41997,10:16:17 2016-02-22
37.2297,-80.41997,10:16:27 2016-02-22
37.2297,-80.41997,10:16:45 2016-02-22
37.2297,-80.41997,10:16:53 2016-02-22
37.2297,-80.41997,10:16:57 2016-02-22
37.2297,-80.41997,10:17:05 2016-02-22
37.2297,-80.41997,10:17:28 2016-02-22
37.2297,-80.41997,10:17:28 2016-02-22
37.2297,-80.41997,10:17:38 2016-02-22
37.2297,-80.41997,10:17:42 2016-02-22
37.2297,-80.41997,10:17:56 2016-02-22
37.2297,-80.41997,10:18:06 2016-02-22
37.2297,-80.41997,10:18:32 2016-02-22
37.2297,-80.41997,10:19:08 2016-02-22
37.2297,-80.41997,10:19:34 2016-02-22
37.2297,-80.41997,10:19:39 2016-02-22
37.2297,-80.41997,10:19:52 2016-02-22
37.2297,-80.41997,10:20:02 2016-02-22
37.2297,-80.41997,10:20:16 2016-02-22
37.2297,-80.41997,10:20:38 2016-02-22
37.2297,-80.41997,10:20:40 2016-02-22
37.2297,-80.41997,10:20:44 2016-02-22
37.2297,-80.41997,10:20:53 2016-02-22
37.2297,-80.41997,10:21:43 2016-02-22
37.2297,-80.41997,10:22:00 2016-02-22
37.2297,-80.41997,10:22:41 2016-02-22
37.2297,-80.41997,10:22:42 2016-02-22
37.2297,-80.41997,10:22:44 2016-02-22
37.2297,-80.41997,10:22:45 2016-02-22
37.2297,-80.41997,10:23:00 2016-02-22
37.2297,-80.41997,10:23:10 2016-02-22
37.2297,-80.41997,10:23:53 2016-02-22
37.2297,-80.41997,10:24:05 2016-02-22
37.2297,-80.41997,10:24:24 2016-02-22
37.2297,-80.41997,10:24:49 2016-02-22
37.2297,-80.41997,10:24:56 2016-02-22
37.2297,-80.41997,10:25:01 2016-02-22
37.2297,-80.41997,10:25:11 2016-02-22
37.2297,-80.41997,10:25:30 2016-02-22
37.2297,-80.41997,10:25:43 2016-02-22
37.2297,-80.41997,10:25:48 2016-02-22
37.2297,-80.41997,10:25:57 2016-02-22
37.2297,-80.41997,10:26:08 2016-02-22
37.2297,-80.41997,10:26:08 2016-02-22
37.2297,-80.41997,10:26:30 2016-02-22
37.2297,-80.41997,10:26:39 2016-02-22
37.2297,-80.41997,10:26:44 2016-02-22
37.2297,-80.41997,10:26:58 2016-02-22
37.2297,-80.41997,10:27:08 2016-02-22
37.2297,-80.41997,10:27:08 2016-02-22
37.2297,-80.41997,10:27:28 2016-02-22
37.2297,-80.41997,10:27:41 2016-02-22
37.2297,-80.41997,10:27:45 2016-02-22
37.2297,-80.41997,10:27:54 2016-02-22
37.2297,-80.41997,10:28:10 2016-02-22
37.2297,-80.41997,10:28:10 2016-02-22
37.2297,-80.41997,10:28:35 2016-02-22
37.2297,-80.41997,10:28:46 2016-02-22
37.2297,-80.41997,10:28:52 2016-02-22
37.2297,-80.41997,10:28:55 2016-02-22
37.2297,-80.41997,10:29:05 2016-02-22
37.2297,-80.41997,10:29:11 2016-02-22
37.2297,-80.41997,10:29:37 2016-02-22
37.2297,-80.41997,10:29:46 2016-02-22
37.2297,-80.41997,10:30:21 2016-02-22
37.2297,-80.41997,10:30:41 2016-02-22
37.2297,-80.41997,10:31:06 2016-02-22
37.2297,-80.41997,10:31:17 2016-02-22
37.2297,-80.41997,10:31:17 2016-02-22
37.2297,-80.41997,10:31:41 2016-02-22
37.2297,-80.41997,10:31:55 2016-02-22
37.2297,-80.41997,10:32:02 2016-02-22
37.2297,-80.41997,10:32:18 2016-02-22
37.2297,-80.41997,10:32:18 2016-02-22
37.2297,-80.41997,10:32:35 2016-02-22
37.2297,-80.41997,10:32:40 2016-02-22
37.2297,-80.41997,10:32:52 2016-02-22
37.2297,-80.41997,10:33:02 2016-02-22
37.2297,-80.41997,10:33:14 2016-02-22
37.2297,-80.41997,10:33:18 2016-02-22
37.2297,-80.41997,10:33:34 2016-02-22
37.2297,-80.41997,10:33:39 2016-02-22
37.2297,-80.41997,10:33:48 2016-02-22
37.2297,-80.41997,10:34:03 2016-02-22
37.2297,-80.41997,10:34:16 2016-02-22
37.2297,-80.41997,10:34:29 2016-02-22
37.2297,-80.41997,10:34:29 2016-02-22
37.2297,-80.41997,10:34:40 2016-02-22
37.2297,-80.41997,10:34:49 2016-02-22
37.2297,-80.41997,10:34:59 2016-02-22
37.2297,-80.41997,10:35:14 2016-02-22
37.2297,-80.41997,10:35:31 2016-02-22
37.2297,-80.41997,10:35:31 2016-02-22
37.2297,-80.41997,10:35:39 2016-02-22
37.2297,-80.41997,10:35:50 2016-02-22
37.2297,-80.41997,10:36:32 2016-02-22
37.2297,-80.41997,10:36:50 2016-02-22
37.2297,-80.41997,10:37:26 2016-02-22
37.2297,-80.41997,10:37:31 2016-02-22
37.2297,-80.41997,10:37:36 2016-02-22
37.2297,-80.41997,10:37:46 2016-02-22
37.2297,-80.41997,10:37:56 2016-02-22
37.2297,-80.41997,10:38:14 2016-02-22
37.2297,-80.41997,10:38:32 2016-02-22
37.2297,-80.41997,10:38:40 2016-02-22
37.2297,-80.41997,10:38:44 2016-02-22
37.2297,-80.41997,10:38:46 2016-02-22
37.2297,-80.41997,10:38:51 2016-02-22
37.2297,-80.41997,10:38:57 2016-02-22
37.2297,-80.41997,10:39:07 2016-02-22
37.2297,-80.41997,10:39:32 2016-02-22
37.2297,-80.41997,10:39:39 2016-02-22
37.2297,-80.41997,10:39:39 2016-02-22
37.2297,-80.41997,10:39:42 2016-02-22
37.2297,-80.41997,10:39:58 2016-02-22
37.2297,-80.41997,10:40:08 2016-02-22
37.2297,-80.41997,10:40:29 2016-02-22
37.2297,-80.41997,10:40:48 2016-02-22
37.2297,-80.41997,10:40:48 2016-02-22
37.2297,-80.41997,10:40:54 2016-02-22
37.2297,-80.41997,10:41:00 2016-02-22
37.2297,-80.41997,10:41:10 2016-02-22
37.2297,-80.41997,10:41:24 2016-02-22
37.2297,-80.41997,10:41:32 2016-02-22
37.2297,-80.41997,10:41:34 2016-02-22
37.2297,-80.41997,10:41:44 2016-02-22
37.2297,-80.41997,10:41:55 2016-02-22
37.2297,-80.41997,10:42:04 2016-02-22
37.2297,-80.41997,10:42:31 2016-02-22
37.2297,-80.41997,10:42:43 2016-02-22
37.2297,-80.41997,10:42:47 2016-02-22
37.2297,-80.41997,10:42:49 2016-02-22
37.2297,-80.41997,10:42:51 2016-02-22
37.2297,-80.41997,10:42:56 2016-02-22
37.2297,-80.41997,10:43:05 2016-02-22
37.2297,-80.41997,10:43:23 2016-02-22
37.2297,-80.41997,10:43:40 2016-02-22
37.2297,-80.41997,10:43:47 2016-02-22
37.2297,-80.41997,10:43:51 2016-02-22
37.2297,-80.41997,10:44:06 2016-02-22
37.2297,-80.41997,10:44:26 2016-02-22
37.2297,-80.41997,10:44:35 2016-02-22
37.2297,-80.41997,10:44:46 2016-02-22
37.2297,-80.41997,10:44:52 2016-02-22
37.2297,-80.41997,10:45:02 2016-02-22
37.2297,-80.41997,10:45:02 2016-02-22
37.2297,-80.41997,10:45:29 2016-02-22
37.2297,-80.41997,10:45:42 2016-02-22
37.2297,-80.41997,10:45:48 2016-02-22
37.2297,-80.41997,10:45:54 2016-02-22
37.2297,-80.41997,10:46:02 2016-02-22
37.2297,-80.41997,10:46:03 2016-02-22
37.2297,-80.41997,10:46:13 2016-02-22
37.2297,-80.41997,10:46:40 2016-02-22
37.2297,-80.41997,10:46:44 2016-02-22
37.2297,-80.41997,10:46:48 2016-02-22
37.2297,-80.41997,10:47:03 2016-02-22
37.2297,-80.41997,10:47:10 2016-02-22
37.2297,-80.41997,10:47:14 2016-02-22
37.2297,-80.41997,10:47:37 2016-02-22
37.2297,-80.41997,10:47:41 2016-02-22
37.2297,-80.41997,10:47:49 2016-02-22
37.2297,-80.41997,10:48:04 2016-02-22
37.2297,-80.41997,10:48:12 2016-02-22
37.2297,-80.41997,10:48:16 2016-02-22
37.2297,-80.41997,10:48:43 2016-02-22
37.2297,-80.41997,10:49:01 2016-02-22
37.2297,-80.41997,10:49:06 2016-02-22
37.2297,-80.41997,10:49:16 2016-02-22
37.2297,-80.41997,10:49:16 2016-02-22
37.2297,-80.41997,10:49:43 2016-02-22
37.2297,-80.41997,10:49:49 2016-02-22
37.2297,-80.41997,10:49:54 2016-02-22
37.2297,-80.41997,10:50:01 2016-02-22
37.2297,-80.41997,10:50:16 2016-02-22
37.2297,-80.41997,10:50:17 2016-02-22
37.2297,-80.41997,10:50:45 2016-02-22
37.2297,-80.41997,10:50:50 2016-02-22
37.2297,-80.41997,10:50:55 2016-02-22
37.2297,-80.41997,10:51:03 2016-02-22
37.2297,-80.41997,10:51:13 2016-02-22
37.2297,-80.41997,10:51:13 2016-02-22
37.2297,-80.41997,10:51:39 2016-02-22
37.2297,-80.41997,10:51:50 2016-02-22
37.2297,-80.41997,10:51:52 2016-02-22
37.2297,-80.41997,10:51:58 2016-02-22
37.2297,-80.41997,10:52:14 2016-02-22
37.2297,-80.41997,10:52:14 2016-02-22
37.2297,-80.41997,10:53:23 2016-02-22
37.2297,-80.41997,10:53:31 2016-02-22
37.2297,-80.41997,10:53:57 2016-02-22
37.2297,-80.41997,10:54:03 2016-02-22
37.2297,-80.41997,10:54:08 2016-02-22
37.2297,-80.41997,10:54:37 2016-02-22
37.2297,-80.41997,10:54:37 2016-02-22
37.2297,-80.41997,10:54:54 2016-02-22
37.2297,-80.41997,10:55:01 2016-02-22
37.2297,-80.41997,10:55:08 2016-02-22
37.2297,-80.41997,10:55:35 2016-02-22
37.2297,-80.41997,10:56:05 2016-02-22
37.2297,-80.41997,10:56:36 2016-02-22
37.2297,-80.41997,10:56:42 2016-02-22
37.2297,-80.41997,10:56:53 2016-02-22
37.2297,-80.41997,10:56:59 2016-02-22
37.2297,-80.41997,10:57:06 2016-02-22
37.2297,-80.41997,10:57:27 2016-02-22
37.2297,-80.41997,10:57:36 2016-02-22
37.2297,-80.41997,10:57:45 2016-02-22
37.2297,-80.41997,10:57:53 2016-02-22
37.2297,-80.41997,10:58:04 2016-02-22
37.2297,-80.41997,10:58:12 2016-02-22
37.2297,-80.41997,10:58:25 2016-02-22
37.2297,-80.41997,10:58:58 2016-02-22
37.2297,-80.41997,10:58:59 2016-02-22
37.2297,-80.41997,10:59:11 2016-02-22
37.2297,-80.41997,10:59:22 2016-02-22
37.2297,-80.41997,10:59:36 2016-02-22
37.2297,-80.41997,10:59:52 2016-02-22
37.2297,-80.41997,11:00:10 2016-02-22
37.2297,-80.41997,11:00:15 2016-02-22
37.2297,-80.41997,11:00:20 2016-02-22
37.2297,-80.41997,11:00:33 2016-02-22
37.2297,-80.41997,11:00:48 2016-02-22
37.2297,-80.41997,11:02:18 2016-02-22
37.2297,-80.41997,11:03:12 2016-02-22
37.2297,-80.41997,11:07:31 2016-02-22
37.2297,-80.41997,11:08:25 2016-02-22
37.2297,-80.41997,11:08:56 2016-02-22
37.2297,-80.41997,11:09:07 2016-02-22
37.2297,-80.41997,11:09:16 2016-02-22
37.2297,-80.41997,11:09:38 2016-02-22
37.2297,-80.41997,11:10:17 2016-02-22
37.2297,-80.41997,11:10:43 2016-02-22
37.2297,-80.41997,11:10:52 2016-02-22
37.2297,-80.41997,11:11:08 2016-02-22
37.2297,-80.41997,11:11:28 2016-02-22
37.2297,-80.41997,11:11:38 2016-02-22
37.2297,-80.41997,11:13:46 2016-02-22
37.2297,-80.41997,11:14:06 2016-02-22
37.2297,-80.41997,11:15:21 2016-02-22
37.2297,-80.41997,11:16:39 2016-02-22
37.2297,-80.41997,11:17:32 2016-02-22
37.2297,-80.41997,11:17:47 2016-02-22
37.2297,-80.41997,11:17:54 2016-02-22
37.2297,-80.41997,11:18:04 2016-02-22
37.2297,-80.41997,11:18:27 2016-02-22
37.2297,-80.41997,11:18:43 2016-02-22
37.2297,-80.41997,11:18:53 2016-02-22
37.2297,-80.41997,11:18:59 2016-02-22
37.2297,-80.41997,11:19:07 2016-02-22
37.2297,-80.41997,11:19:19 2016-02-22
37.2297,-80.41997,11:20:06 2016-02-22
37.2297,-80.41997,11:20:35 2016-02-22
37.2297,-80.41997,11:20:44 2016-02-22
37.2297,-80.41997,11:20:52 2016-02-22
37.2297,-80.41997,11:21:08 2016-02-22
37.2297,-80.41997,11:21:20 2016-02-22
37.2297,-80.41997,11:21:42 2016-02-22
37.2297,-80.41997,11:22:12 2016-02-22
37.2297,-80.41997,11:22:37 2016-02-22
37.2297,-80.41997,11:22:51 2016-02-22
37.2297,-80.41997,11:22:59 2016-02-22
37.2297,-80.41997,11:23:59 2016-02-22
37.2297,-80.41997,11:24:11 2016-02-22
37.2297,-80.41997,11:24:37 2016-02-22
37.2297,-80.41997,11:24:48 2016-02-22
37.2297,-80.41997,11:26:13 2016-02-22
37.2297,-80.41997,11:26:27 2016-02-22
37.2297,-80.41997,11:26:34 2016-02-22
37.2297,-80.41997,11:26:40 2016-02-22
37.2297,-80.41997,11:26:46 2016-02-22
37.2297,-80.41997,11:27:03 2016-02-22
37.2297,-80.41997,11:27:13 2016-02-22
37.2297,-80.41997,11:27:18 2016-02-22
37.2297,-80.41997,11:27:33 2016-02-22
37.2297,-80.41997,11:27:39 2016-02-22
37.2297,-80.41997,11:27:46 2016-02-22
37.2297,-80.41997,11:28:03 2016-02-22
37.2297,-80.41997,11:28:07 2016-02-22
37.2297,-80.41997,11:28:13 2016-02-22
37.2297,-80.41997,11:28:20 2016-02-22
37.2297,-80.41997,11:28:24 2016-02-22
37.2297,-80.41997,11:28:33 2016-02-22
37.2297,-80.41997,11:28:44 2016-02-22
37.2297,-80.41997,11:28:49 2016-02-22
37.2297,-80.41997,11:28:54 2016-02-22
37.2297,-80.41997,11:29:01 2016-02-22
37.2297,-80.41997,11:29:12 2016-02-22
37.2297,-80.41997,11:29:21 2016-02-22
37.2297,-80.41997,11:29:29 2016-02-22
37.2297,-80.41997,11:29:36 2016-02-22
37.2297,-80.41997,11:29:44 2016-02-22
37.2297,-80.41997,11:30:01 2016-02-22
37.2297,-80.41997,11:30:07 2016-02-22
37.2297,-80.41997,11:30:51 2016-02-22
37.2297,-80.41997,11:31:04 2016-02-22
37.2297,-80.41997,11:31:19 2016-02-22
37.2297,-80.41997,11:31:34 2016-02-22
37.2297,-80.41997,11:31:43 2016-02-22
37.2297,-80.41997,11:31:49 2016-02-22
37.2297,-80.41997,11:31:57 2016-02-22
37.2297,-80.41997,11:32:03 2016-02-22
37.2297,-80.41997,11:32:17 2016-02-22
37.2297,-80.41997,11:32:24 2016-02-22
37.2297,-80.41997,11:32:29 2016-02-22
37.2297,-80.41997,11:32:38 2016-02-22
37.2297,-80.41997,11:32:46 2016-02-22
37.2297,-80.41997,11:32:57 2016-02-22
37.2297,-80.41997,11:33:05 2016-02-22
37.2297,-80.41997,11:33:10 2016-02-22
37.2297,-80.41997,11:33:54 2016-02-22
37.2297,-80.41997,11:34:27 2016-02-22
37.2297,-80.41997,11:34:44 2016-02-22
37.2297,-80.41997,11:34:49 2016-02-22
37.2297,-80.41997,11:34:54 2016-02-22
37.2297,-80.41997,11:35:09 2016-02-22
37.2297,-80.41997,11:35:33 2016-02-22
37.2297,-80.41997,11:35:43 2016-02-22
37.2297,-80.41997,11:35:49 2016-02-22
37.2297,-80.41997,11:35:57 2016-02-22
37.2297,-80.41997,11:36:04 2016-02-22
37.2297,-80.41997,11:36:17 2016-02-22
37.2297,-80.41997,11:36:48 2016-02-22
37.2297,-80.41997,11:36:52 2016-02-22
37.2297,-80.41997,11:36:57 2016-02-22
37.2297,-80.41997,11:37:05 2016-02-22
37.2297,-80.41997,11:37:17 2016-02-22
37.2297,-80.41997,11:37:37 2016-02-22
37.2297,-80.41997,11:37:43 2016-02-22
37.2297,-80.41997,11:37:50 2016-02-22
37.2297,-80.41997,11:38:06 2016-02-22
37.2297,-80.41997,11:38:26 2016-02-22
37.2297,-80.41997,11:38:46 2016-02-22
37.2297,-80.41997,11:38:56 2016-02-22
37.2297,-80.41997,11:39:02 2016-02-22
37.2297,-80.41997,11:39:09 2016-02-22
37.2297,-80.41997,11:39:29 2016-02-22
37.2297,-80.41997,11:39:48 2016-02-22
37.2297,-80.41997,11:39:57 2016-02-22
37.2297,-80.41997,11:40:05 2016-02-22
37.2297,-80.41997,11:40:11 2016-02-22
37.2297,-80.41997,11:40:21 2016-02-22
37.2297,-80.41997,11:40:38 2016-02-22
37.2297,-80.41997,11:40:53 2016-02-22
37.2297,-80.41997,11:40:57 2016-02-22
37.2297,-80.41997,11:41:03 2016-02-22
37.2297,-80.41997,11:42:04 2016-02-22
37.2297,-80.41997,11:42:44 2016-02-22
37.2297,-80.41997,11:42:51 2016-02-22
37.2297,-80.41997,11:42:55 2016-02-22
37.2297,-80.41997,11:43:13 2016-02-22
37.2297,-80.41997,11:43:28 2016-02-22
37.2297,-80.41997,11:43:43 2016-02-22
37.2297,-80.41997,11:43:52 2016-02-22
37.2297,-80.41997,11:43:59 2016-02-22
37.2297,-80.41997,11:44:06 2016-02-22
37.2297,-80.41997,11:44:33 2016-02-22
37.2297,-80.41997,11:44:44 2016-02-22
37.2297,-80.41997,11:44:49 2016-02-22
37.2297,-80.41997,11:44:58 2016-02-22
37.2297,-80.41997,11:45:08 2016-02-22
37.2297,-80.41997,11:46:32 2016-02-22
37.2297,-80.41997,11:47:01 2016-02-22
37.2297,-80.41997,11:47:08 2016-02-22
37.2297,-80.41997,11:47:25 2016-02-22
37.2297,-80.41997,11:47:42 2016-02-22
37.2297,-80.41997,11:47:54 2016-02-22
37.2297,-80.41997,11:48:01 2016-02-22
37.2297,-80.41997,11:48:05 2016-02-22
37.2297,-80.41997,11:48:16 2016-02-22
37.2297,-80.41997,11:48:41 2016-02-22
37.2297,-80.41997,11:48:49 2016-02-22
37.2297,-80.41997,11:49:00 2016-02-22
37.2297,-80.41997,11:49:07 2016-02-22
37.2297,-80.41997,11:49:13 2016-02-22
37.2297,-80.41997,11:49:48 2016-02-22
37.2297,-80.41997,11:49:56 2016-02-22
37.2297,-80.41997,11:50:02 2016-02-22
37.2297,-80.41997,11:50:09 2016-02-22
37.2297,-80.41997,11:50:18 2016-02-22
37.2297,-80.41997,11:50:41 2016-02-22
37.2297,-80.41997,11:51:00 2016-02-22
37.2297,-80.41997,11:51:09 2016-02-22
37.2297,-80.41997,11:51:13 2016-02-22
37.2297,-80.41997,11:51:27 2016-02-22
37.2297,-80.41997,11:51:40 2016-02-22
37.2297,-80.41997,11:51:52 2016-02-22
37.2297,-80.41997,11:52:01 2016-02-22
37.2297,-80.41997,11:52:09 2016-02-22
37.2297,-80.41997,11:52:14 2016-02-22
37.2297,-80.41997,11:52:38 2016-02-22
37.2297,-80.41997,11:52:47 2016-02-22
37.2297,-80.41997,11:52:54 2016-02-22
37.2297,-80.41997,11:53:04 2016-02-22
37.2297,-80.41997,11:53:13 2016-02-22
37.2297,-80.41997,11:53:31 2016-02-22
37.2297,-80.41997,11:53:48 2016-02-22
37.2297,-80.41997,11:53:54 2016-02-22
37.2297,-80.41997,11:53:59 2016-02-22
37.2297,-80.41997,11:54:14 2016-02-22
37.2297,-80.41997,11:54:31 2016-02-22
37.2297,-80.41997,11:54:43 2016-02-22
37.2297,-80.41997,11:54:52 2016-02-22
37.2297,-80.41997,11:54:56 2016-02-22
37.2297,-80.41997,11:55:07 2016-02-22
37.2297,-80.41997,11:55:38 2016-02-22
37.2297,-80.41997,11:55:55 2016-02-22
37.2297,-80.41997,11:56:08 2016-02-22
37.2297,-80.41997,11:56:15 2016-02-22
37.2297,-80.41997,11:56:34 2016-02-22
37.2297,-80.41997,11:57:17 2016-02-22
37.2297,-80.41997,11:57:42 2016-02-22
37.2297,-80.41997,11:57:48 2016-02-22
37.2297,-80.41997,11:57:56 2016-02-22
37.2297,-80.41997,11:58:05 2016-02-22
37.2297,-80.41997,12:00:12 2016-02-22
37.2297,-80.41997,12:00:44 2016-02-22
37.2297,-80.41997,12:00:59 2016-02-22
37.2297,-80.41997,12:01:05 2016-02-22
37.2297,-80.41997,12:01:14 2016-02-22
37.2297,-80.41997,12:01:29 2016-02-22
37.2297,-80.41997,12:01:44 2016-02-22
37.2297,-80.41997,12:02:03 2016-02-22
37.2297,-80.41997,12:03:20 2016-02-22
37.2297,-80.41997,12:03:34 2016-02-22
37.2297,-80.41997,12:03:54 2016-02-22
37.2297,-80.41997,12:04:02 2016-02-22
37.2297,-80.41997,12:04:10 2016-02-22
37.2297,-80.41997,12:04:23 2016-02-22
37.2297,-80.41997,12:04:50 2016-02-22
37.2297,-80.41997,12:05:03 2016-02-22
37.2297,-80.41997,12:05:11 2016-02-22
37.2297,-80.41997,12:05:35 2016-02-22
37.2297,-80.41997,12:07:12 2016-02-22
37.2297,-80.41997,12:09:02 2016-02-22
37.2297,-80.41997,12:10:29 2016-02-22
37.2297,-80.41997,12:10:39 2016-02-22
37.2297,-80.41997,12:10:48 2016-02-22
37.2297,-80.41997,12:13:18 2016-02-22
37.2297,-80.41997,12:13:54 2016-02-22
37.2297,-80.41997,12:14:33 2016-02-22
37.2297,-80.41997,12:15:31 2016-02-22
37.2297,-80.41997,12:16:35 2016-02-22
37.2297,-80.41997,12:16:46 2016-02-22
37.2297,-80.41997,12:16:59 2016-02-22
37.2297,-80.41997,12:16:59 2016-02-22
37.2297,-80.41997,12:17:18 2016-02-22
37.2297,-80.41997,12:17:38 2016-02-22
37.2297,-80.41997,12:17:48 2016-02-22
37.2297,-80.41997,12:17:55 2016-02-22
37.2297,-80.41997,12:18:04 2016-02-22
37.2297,-80.41997,12:19:00 2016-02-22
37.2297,-80.41997,12:19:40 2016-02-22
37.2297,-80.41997,12:20:09 2016-02-22
37.2297,-80.41997,12:20:25 2016-02-22
37.2297,-80.41997,12:20:33 2016-02-22
37.2297,-80.41997,12:20:41 2016-02-22
37.2297,-80.41997,12:20:56 2016-02-22
37.2297,-80.41997,12:21:27 2016-02-22
37.2297,-80.41997,12:21:35 2016-02-22
37.2297,-80.41997,12:21:45 2016-02-22
37.2297,-80.41997,12:22:42 2016-02-22
37.2297,-80.41997,12:22:57 2016-02-22
37.2297,-80.41997,12:23:02 2016-02-22
37.2297,-80.41997,12:23:12 2016-02-22
37.2297,-80.41997,12:23:22 2016-02-22
37.2297,-80.41997,12:23:29 2016-02-22
37.2297,-80.41997,12:23:37 2016-02-22
37.2297,-80.41997,12:23:44 2016-02-22
37.2297,-80.41997,12:24:05 2016-02-22
37.2297,-80.41997,12:24:26 2016-02-22
37.2297,-80.41997,12:24:34 2016-02-22
37.2297,-80.41997,12:24:45 2016-02-22
37.2297,-80.41997,12:24:52 2016-02-22
37.2297,-80.41997,12:25:04 2016-02-22
37.2297,-80.41997,12:25:16 2016-02-22
37.2297,-80.41997,12:26:24 2016-02-22
37.2297,-80.41997,12:26:38 2016-02-22
37.2297,-80.41997,12:26:45 2016-02-22
37.2297,-80.41997,12:27:42 2016-02-22
37.2297,-80.41997,12:28:09 2016-02-22
37.2297,-80.41997,12:28:16 2016-02-22
37.2297,-80.41997,12:28:24 2016-02-22
37.2297,-80.41997,12:28:32 2016-02-22
37.2297,-80.41997,12:29:02 2016-02-22
37.2297,-80.41997,12:29:09 2016-02-22
37.2297,-80.41997,12:29:15 2016-02-22
37.2297,-80.41997,12:29:25 2016-02-22
37.2297,-80.41997,12:29:32 2016-02-22
37.2297,-80.41997,12:29:48 2016-02-22
37.2297,-80.41997,12:30:06 2016-02-22
37.2297,-80.41997,12:30:10 2016-02-22
37.2297,-80.41997,12:30:18 2016-02-22
37.2297,-80.41997,12:30:38 2016-02-22
37.2297,-80.41997,12:30:53 2016-02-22
37.2297,-80.41997,12:31:05 2016-02-22
37.2297,-80.41997,12:31:15 2016-02-22
37.2297,-80.41997,12:31:21 2016-02-22
37.2297,-80.41997,12:31:29 2016-02-22
37.2297,-80.41997,12:31:45 2016-02-22
37.2297,-80.41997,12:31:57 2016-02-22
37.2297,-80.41997,12:32:05 2016-02-22
37.2297,-80.41997,12:32:14 2016-02-22
37.2297,-80.41997,12:33:01 2016-02-22
37.2297,-80.41997,12:33:23 2016-02-22
37.2297,-80.41997,12:33:27 2016-02-22
37.2297,-80.41997,12:33:31 2016-02-22
37.2297,-80.41997,12:33:39 2016-02-22
37.2297,-80.41997,12:33:46 2016-02-22
37.2297,-80.41997,12:33:54 2016-02-22
37.2297,-80.41997,12:34:00 2016-02-22
37.2297,-80.41997,12:34:04 2016-02-22
37.2297,-80.41997,12:34:08 2016-02-22
37.2297,-80.41997,12:34:23 2016-02-22
37.2297,-80.41997,12:34:38 2016-02-22
37.2297,-80.41997,12:34:44 2016-02-22
37.2297,-80.41997,12:35:16 2016-02-22
37.2297,-80.41997,12:36:03 2016-02-22
37.2297,-80.41997,12:36:19 2016-02-22
37.2297,-80.41997,12:36:42 2016-02-22
37.2297,-80.41997,12:36:54 2016-02-22
37.2297,-80.41997,12:36:59 2016-02-22
37.2297,-80.41997,12:37:05 2016-02-22
37.2297,-80.41997,12:37:23 2016-02-22
37.2297,-80.41997,12:37:38 2016-02-22
37.2297,-80.41997,12:37:47 2016-02-22
37.2297,-80.41997,12:37:55 2016-02-22
37.2297,-80.41997,12:38:02 2016-02-22
37.2297,-80.41997,12:38:16 2016-02-22
37.2297,-80.41997,12:38:43 2016-02-22
37.2297,-80.41997,12:38:50 2016-02-22
37.2297,-80.41997,12:38:55 2016-02-22
37.2297,-80.41997,12:39:07 2016-02-22
37.2297,-80.41997,12:39:18 2016-02-22
37.2297,-80.41997,12:39:36 2016-02-22
37.2297,-80.41997,12:39:50 2016-02-22
37.2297,-80.41997,12:39:56 2016-02-22
37.2297,-80.41997,12:40:02 2016-02-22
37.2297,-80.41997,12:40:21 2016-02-22
37.2297,-80.41997,12:40:40 2016-02-22
37.2297,-80.41997,12:40:59 2016-02-22
37.2297,-80.41997,12:41:07 2016-02-22
37.2297,-80.41997,12:41:13 2016-02-22
37.2297,-80.41997,12:41:45 2016-02-22
37.2297,-80.41997,12:42:55 2016-02-22
37.2297,-80.41997,12:43:06 2016-02-22
37.2297,-80.41997,12:43:13 2016-02-22
37.2297,-80.41997,12:43:33 2016-02-22
37.2297,-80.41997,12:43:42 2016-02-22
37.2297,-80.41997,12:43:46 2016-02-22
37.2297,-80.41997,12:43:56 2016-02-22
37.2297,-80.41997,12:44:06 2016-02-22
37.2297,-80.41997,12:44:28 2016-02-22
37.2297,-80.41997,12:44:35 2016-02-22
37.2297,-80.41997,12:44:43 2016-02-22
37.2297,-80.41997,12:44:57 2016-02-22
37.2297,-80.41997,12:45:07 2016-02-22
37.2297,-80.41997,12:45:29 2016-02-22
37.2297,-80.41997,12:45:49 2016-02-22
37.2297,-80.41997,12:45:54 2016-02-22
37.2297,-80.41997,12:46:00 2016-02-22
37.2297,-80.41997,12:46:08 2016-02-22
37.2297,-80.41997,12:46:28 2016-02-22
37.2297,-80.41997,12:46:48 2016-02-22
37.2297,-80.41997,12:46:57 2016-02-22
37.2297,-80.41997,12:47:04 2016-02-22
37.2297,-80.41997,12:47:11 2016-02-22
37.2297,-80.41997,12:47:31 2016-02-22
37.2297,-80.41997,12:47:47 2016-02-22
37.2297,-80.41997,12:47:53 2016-02-22
37.2297,-80.41997,12:48:00 2016-02-22
37.2297,-80.41997,12:48:06 2016-02-22
37.2297,-80.41997,12:48:23 2016-02-22
37.2297,-80.41997,12:49:58 2016-02-22
37.2297,-80.41997,12:50:04 2016-02-22
37.2297,-80.41997,12:50:18 2016-02-22
37.2297,-80.41997,12:50:38 2016-02-22
37.2297,-80.41997,12:50:44 2016-02-22
37.2297,-80.41997,12:50:49 2016-02-22
37.2297,-80.41997,12:51:04 2016-02-22
37.2297,-80.41997,12:51:16 2016-02-22
37.2297,-80.41997,12:51:37 2016-02-22
37.2297,-80.41997,12:51:49 2016-02-22
37.2297,-80.41997,12:51:54 2016-02-22
37.2297,-80.41997,12:52:01 2016-02-22
37.2297,-80.41997,12:52:17 2016-02-22
37.2297,-80.41997,12:52:38 2016-02-22
37.2297,-80.41997,12:53:57 2016-02-22
37.2297,-80.41997,12:54:08 2016-02-22
37.2297,-80.41997,12:54:33 2016-02-22
37.2297,-80.41997,12:54:40 2016-02-22
37.2297,-80.41997,12:54:47 2016-02-22
37.2297,-80.41997,12:55:00 2016-02-22
37.2297,-80.41997,12:55:10 2016-02-22
37.2297,-80.41997,12:55:23 2016-02-22
37.2297,-80.41997,12:55:39 2016-02-22
37.2297,-80.41997,12:55:44 2016-02-22
37.2297,-80.41997,12:55:55 2016-02-22
37.2297,-80.41997,12:56:12 2016-02-22
37.2297,-80.41997,12:56:26 2016-02-22
37.2297,-80.41997,12:56:37 2016-02-22
37.2297,-80.41997,12:56:47 2016-02-22
37.2297,-80.41997,12:56:56 2016-02-22
37.2297,-80.41997,12:57:07 2016-02-22
37.2297,-80.41997,12:57:24 2016-02-22
37.2297,-80.41997,12:57:41 2016-02-22
37.2297,-80.41997,12:57:47 2016-02-22
37.2297,-80.41997,12:57:53 2016-02-22
37.2297,-80.41997,12:58:07 2016-02-22
37.2297,-80.41997,12:58:30 2016-02-22
37.2297,-80.41997,12:58:43 2016-02-22
37.2297,-80.41997,12:58:50 2016-02-22
37.2297,-80.41997,12:58:59 2016-02-22
37.2297,-80.41997,12:59:09 2016-02-22
37.2297,-80.41997,12:59:29 2016-02-22
37.2297,-80.41997,12:59:50 2016-02-22
37.2297,-80.41997,12:59:56 2016-02-22
37.2297,-80.41997,13:00:03 2016-02-22
37.2297,-80.41997,13:00:13 2016-02-22
37.2297,-80.41997,13:00:34 2016-02-22
37.2297,-80.41997,13:00:50 2016-02-22
37.2297,-80.41997,13:00:56 2016-02-22
37.2297,-80.41997,13:01:06 2016-02-22
37.2297,-80.41997,13:01:13 2016-02-22
37.2297,-80.41997,13:01:27 2016-02-22
37.2297,-80.41997,13:01:35 2016-02-22
37.2297,-80.41997,13:01:44 2016-02-22
37.2297,-80.41997,13:01:52 2016-02-22
37.2297,-80.41997,13:01:58 2016-02-22
37.2297,-80.41997,13:02:08 2016-02-22
37.2297,-80.41997,13:02:27 2016-02-22
37.2297,-80.41997,13:02:37 2016-02-22
37.2297,-80.41997,13:02:49 2016-02-22
37.2297,-80.41997,13:02:56 2016-02-22
37.2297,-80.41997,13:03:04 2016-02-22
37.2297,-80.41997,13:03:35 2016-02-22
37.2297,-80.41997,13:03:47 2016-02-22
37.2297,-80.41997,13:03:56 2016-02-22
37.2297,-80.41997,13:04:03 2016-02-22
37.2297,-80.41997,13:04:08 2016-02-22
37.2297,-80.41997,13:04:19 2016-02-22
37.2297,-80.41997,13:04:35 2016-02-22
37.2297,-80.41997,13:04:42 2016-02-22
37.2297,-80.41997,13:04:51 2016-02-22
37.2297,-80.41997,13:05:06 2016-02-22
37.2297,-80.41997,13:05:18 2016-02-22
37.2297,-80.41997,13:05:42 2016-02-22
37.2297,-80.41997,13:05:58 2016-02-22
37.2297,-80.41997,13:06:06 2016-02-22
37.2297,-80.41997,13:06:13 2016-02-22
37.2297,-80.41997,13:06:29 2016-02-22
37.2297,-80.41997,13:06:47 2016-02-22
37.2297,-80.41997,13:06:58 2016-02-22
37.2297,-80.41997,13:07:12 2016-02-22
37.2297,-80.41997,13:07:21 2016-02-22
37.2297,-80.41997,13:07:33 2016-02-22
37.2297,-80.41997,13:08:39 2016-02-22
37.2297,-80.41997,13:09:16 2016-02-22
37.2297,-80.41997,13:09:25 2016-02-22
37.2297,-80.41997,13:09:37 2016-02-22
37.2297,-80.41997,13:09:54 2016-02-22
37.2297,-80.41997,13:10:22 2016-02-22
37.2297,-80.41997,13:10:32 2016-02-22
37.2297,-80.41997,13:10:51 2016-02-22
37.2297,-80.41997,13:11:36 2016-02-22
37.2297,-80.41997,13:11:55 2016-02-22
37.2297,-80.41997,13:12:21 2016-02-22
37.2297,-80.41997,13:12:52 2016-02-22
37.2297,-80.41997,13:15:04 2016-02-22
37.2297,-80.41997,13:15:20 2016-02-22
37.2297,-80.41997,13:16:33 2016-02-22
37.2297,-80.41997,13:18:51 2016-02-22
37.2297,-80.41997,13:19:02 2016-02-22
37.2297,-80.41997,13:19:30 2016-02-22
37.2261,-80.41787,13:20:06 2016-02-22
37.2297,-80.41997,13:21:16 2016-02-22
37.2261,-80.41787,13:21:19 2016-02-22
37.223,-80.42501,13:25:16 2016-02-22
37.2306,-80.42178,13:25:44 2016-02-22
37.22,-80.42371,13:26:43 2016-02-22
37.22,-80.42371,13:26:48 2016-02-22
37.2297,-80.41997,13:26:53 2016-02-22
37.2299,-80.42474,13:27:18 2016-02-22
37.2299,-80.42474,13:27:18 2016-02-22
37.2299,-80.42474,13:27:52 2016-02-22
37.2299,-80.42474,13:28:01 2016-02-22
37.2310,-80.42445,13:28:05 2016-02-22
37.2310,-80.42445,13:28:06 2016-02-22
37.2310,-80.42445,13:28:08 2016-02-22
37.2310,-80.42445,13:28:12 2016-02-22
37.2310,-80.42445,13:28:17 2016-02-22
37.2310,-80.42445,13:28:17 2016-02-22
37.2310,-80.42445,13:28:42 2016-02-22
37.2310,-80.42445,13:29:01 2016-02-22
37.2310,-80.42445,13:29:10 2016-02-22
37.2310,-80.42445,13:29:10 2016-02-22
37.2279,-80.42568,13:34:05 2016-02-22
37.2279,-80.42568,13:34:11 2016-02-22
37.2279,-80.42568,13:34:11 2016-02-22
37.2229,-80.42427,13:35:05 2016-02-22
37.2229,-80.42427,13:35:06 2016-02-22
37.2229,-80.42427,13:35:06 2016-02-22
37.257,-79.94638,13:40:15 2016-02-22
37.257,-79.94638,13:40:34 2016-02-22
37.257,-79.94638,13:40:34 2016-02-22
37.257,-79.94638,13:40:56 2016-02-22
37.257,-79.94638,13:42:14 2016-02-22
37.257,-79.94638,13:42:38 2016-02-22
37.257,-79.94638,13:42:55 2016-02-22
37.257,-79.94638,13:43:01 2016-02-22
37.257,-79.94638,13:43:09 2016-02-22
37.257,-79.94638,13:43:15 2016-02-22
37.257,-79.94638,13:43:22 2016-02-22
37.257,-79.94638,13:44:06 2016-02-22
37.257,-79.94638,13:45:07 2016-02-22
37.257,-79.94638,13:45:34 2016-02-22
37.257,-79.94638,13:45:40 2016-02-22
37.257,-79.94638,13:45:44 2016-02-22
37.257,-79.94638,13:45:56 2016-02-22
37.257,-79.94638,13:46:27 2016-02-22
37.257,-79.94638,13:48:06 2016-02-22
37.257,-79.94638,13:48:11 2016-02-22
37.257,-79.94638,13:48:53 2016-02-22
37.257,-79.94638,13:48:57 2016-02-22
37.257,-79.94638,13:49:16 2016-02-22
37.257,-79.94638,13:50:55 2016-02-22
37.257,-79.94638,13:50:55 2016-02-22
37.257,-79.94638,13:51:03 2016-02-22
37.257,-79.94638,13:51:10 2016-02-22
37.257,-79.94638,13:51:15 2016-02-22
37.257,-79.94638,13:51:29 2016-02-22
37.257,-79.94638,13:51:36 2016-02-22
37.257,-79.94638,13:51:39 2016-02-22
37.257,-79.94638,13:51:41 2016-02-22
37.257,-79.94638,13:52:01 2016-02-22
37.257,-79.94638,13:52:11 2016-02-22
37.257,-79.94638,13:53:02 2016-02-22
37.257,-79.94638,13:53:32 2016-02-22
37.257,-79.94638,13:53:42 2016-02-22
37.257,-79.94638,13:53:49 2016-02-22
37.257,-79.94638,13:53:51 2016-02-22
37.257,-79.94638,13:53:58 2016-02-22
37.257,-79.94638,13:54:08 2016-02-22
37.257,-79.94638,13:54:27 2016-02-22
37.257,-79.94638,13:55:04 2016-02-22
37.257,-79.94638,13:55:42 2016-02-22
37.257,-79.94638,13:55:52 2016-02-22
37.257,-79.94638,13:55:58 2016-02-22
37.257,-79.94638,13:57:01 2016-02-22
37.257,-79.94638,13:57:38 2016-02-22
37.257,-79.94638,13:57:54 2016-02-22
37.257,-79.94638,13:59:54 2016-02-22
37.257,-79.94638,14:00:11 2016-02-22
37.257,-79.94638,14:01:07 2016-02-22
37.257,-79.94638,14:02:13 2016-02-22
37.257,-79.94638,14:02:26 2016-02-22
37.257,-79.94638,14:02:47 2016-02-22
37.257,-79.94638,14:02:53 2016-02-22
37.257,-79.94638,14:03:00 2016-02-22
37.257,-79.94638,14:03:09 2016-02-22
37.257,-79.94638,14:03:53 2016-02-22
37.257,-79.94638,14:03:56 2016-02-22
37.257,-79.94638,14:04:03 2016-02-22
37.257,-79.94638,14:04:07 2016-02-22
37.257,-79.94638,14:04:21 2016-02-22
37.257,-79.94638,14:04:35 2016-02-22
37.257,-79.94638,14:04:49 2016-02-22
37.257,-79.94638,14:05:13 2016-02-22
37.257,-79.94638,14:05:32 2016-02-22
37.257,-79.94638,14:05:45 2016-02-22
37.257,-79.94638,14:05:53 2016-02-22
37.257,-79.94638,14:06:02 2016-02-22
37.257,-79.94638,14:06:14 2016-02-22
37.257,-79.94638,14:06:31 2016-02-22
37.257,-79.94638,14:06:56 2016-02-22
37.257,-79.94638,14:07:08 2016-02-22
37.257,-79.94638,14:07:15 2016-02-22
37.257,-79.94638,14:07:27 2016-02-22
37.257,-79.94638,14:08:00 2016-02-22
37.257,-79.94638,14:09:00 2016-02-22
37.257,-79.94638,14:09:14 2016-02-22
37.257,-79.94638,14:09:38 2016-02-22
37.257,-79.94638,14:09:49 2016-02-22
37.257,-79.94638,14:09:53 2016-02-22
37.257,-79.94638,14:09:58 2016-02-22
37.257,-79.94638,14:10:19 2016-02-22
37.257,-79.94638,14:10:59 2016-02-22
37.257,-79.94638,14:11:43 2016-02-22
37.257,-79.94638,14:13:08 2016-02-22
37.257,-79.94638,14:13:25 2016-02-22
37.257,-79.94638,14:13:43 2016-02-22
37.257,-79.94638,14:14:24 2016-02-22
37.257,-79.94638,14:15:34 2016-02-22
37.257,-79.94638,14:16:12 2016-02-22
37.257,-79.94638,14:16:20 2016-02-22
37.257,-79.94638,14:16:33 2016-02-22
37.257,-79.94638,14:17:32 2016-02-22
37.257,-79.94638,14:17:41 2016-02-22
37.257,-79.94638,14:17:55 2016-02-22
37.257,-79.94638,14:18:05 2016-02-22
37.257,-79.94638,14:18:37 2016-02-22
37.257,-79.94638,14:21:47 2016-02-22
37.257,-79.94638,14:23:45 2016-02-22
37.257,-79.94638,14:26:15 2016-02-22
37.257,-79.94638,14:26:35 2016-02-22
37.257,-79.94638,14:26:53 2016-02-22
37.257,-79.94638,14:27:08 2016-02-22
37.257,-79.94638,14:27:08 2016-02-22
37.257,-79.94638,14:27:16 2016-02-22
37.257,-79.94638,14:27:29 2016-02-22
37.257,-79.94638,14:27:57 2016-02-22
37.257,-79.94638,14:29:35 2016-02-22
37.257,-79.94638,14:29:43 2016-02-22
37.257,-79.94638,14:30:00 2016-02-22
37.257,-79.94638,14:30:20 2016-02-22
37.257,-79.94638,14:30:31 2016-02-22
37.257,-79.94638,14:30:49 2016-02-22
37.257,-79.94638,14:32:24 2016-02-22
37.257,-79.94638,14:32:34 2016-02-22
37.257,-79.94638,14:32:56 2016-02-22
37.257,-79.94638,14:33:18 2016-02-22
37.257,-79.94638,14:33:30 2016-02-22
37.257,-79.94638,14:33:40 2016-02-22
37.257,-79.94638,14:33:49 2016-02-22
37.257,-79.94638,14:34:18 2016-02-22
37.257,-79.94638,14:34:39 2016-02-22
37.257,-79.94638,14:34:54 2016-02-22
37.257,-79.94638,14:35:04 2016-02-22
37.257,-79.94638,14:35:12 2016-02-22
37.257,-79.94638,14:35:56 2016-02-22
37.257,-79.94638,14:35:56 2016-02-22
37.257,-79.94638,14:36:15 2016-02-22
37.2229,-80.42427,14:42:00 2016-02-22
37.2229,-80.42427,14:42:00 2016-02-22
37.257,-79.94638,14:50:39 2016-02-22
37.23357,-80.431129,15:31:01 2016-02-22
37.2269,-80.42877,15:33:18 2016-02-22
37.2269,-80.42877,15:33:38 2016-02-22
37.2269,-80.42877,15:33:43 2016-02-22
37.2269,-80.42877,15:33:56 2016-02-22
